{
  "cod": "200",
  "message": 0.0115,
  "cnt": 1,
  "list": [
    {
      "dt": 1565600400,
      "main": {
        "temp": 290.49,
        "temp_min": 290.189,
        "temp_max": 290.49,
        "pressure": 1014.15,
        "sea_level": 1014.15,
        "grnd_level": 1009.17,
        "humidity": 64,
        "temp_kf": 0.3
      },
      "weather": [
        {
          "id": 803,
          "main": "Clouds",
          "description": "broken clouds",
          "icon": "04d"
        }
      ],
      "clouds": {
        "all": 66
      },
      "wind": {
        "speed": 2.07,
        "deg": 342.634
      },
      "rain": {
        "3h": 666
      },
      "snow": {
        "3h": 666
      },
      "sys": {
        "pod": "d"
      },
      "dt_txt": "2019-08-12 09:00:00"
    }
  ],
  "city": {
    "id": 2643743,
    "name": "London",
    "coord": {
      "lat": 51.5085,
      "lon": -0.1258
    },
    "country": "GB",
    "population": 1000000,
    "timezone": 3600
  }
}